RISCV_SNN.sim/sim_1/behav/xsim/simulate_snn.log
#-----------------------------------------------------------
# xsim v2025.2 (64-bit)
# SW Build 6299465 on Fri Nov 14 19:35:11 GMT 2025
# IP Build 6300035 on Fri Nov 14 10:48:45 MST 2025
# SharedData Build 6298862 on Thu Nov 13 04:50:51 MST 2025
# Start of session at: Mon Jun 15 21:24:25 2026
# Process ID         : 18080
# Current directory  : C:/Users/Administrator/Documents/FYP_Docs/RISCV_SNN/RISCV_SNN.sim/sim_1/behav/xsim
# Command line       : xsim.exe -log simulate_snn.log -mode tcl -source {xsim.dir/snn_e2e_tb_behav/xsim_script.tcl}
# Log file           : C:/Users/Administrator/Documents/FYP_Docs/RISCV_SNN/RISCV_SNN.sim/sim_1/behav/xsim/simulate_snn.log
# Journal file       : C:/Users/Administrator/Documents/FYP_Docs/RISCV_SNN/RISCV_SNN.sim/sim_1/behav/xsim\xsim.jou
# Running On         : LAPTOP-3DEM65C9
# Platform           : Windows Server 2016 or Windows 10
# Operating System   : 26200
# Processor Detail   : AMD Ryzen 7 4800H with Radeon Graphics         
# CPU Frequency      : 2895 MHz
# CPU Physical cores : 8
# CPU Logical cores  : 16
# Host memory        : 16558 MB
# Swap memory        : 25769 MB
# Total Virtual      : 42328 MB
# Available Virtual  : 25473 MB
#-----------------------------------------------------------
source xsim.dir/snn_e2e_tb_behav/xsim_script.tcl
# xsim {snn_e2e_tb_behav} -autoloadwcfg -runall
Time resolution is 1 ps
run -all
XilinxAXIVIP: Found at Path: snn_e2e_tb.dut.u_ps_stub.ps_stub_i.ps7_0.inst.M_AXI_GP0.master
[0] : *ZYNQ_VIP_INFO : M_AXI_GP0 : Port is DISABLED.
XilinxAXIVIP: Found at Path: snn_e2e_tb.dut.u_ps_stub.ps_stub_i.ps7_0.inst.M_AXI_GP1.master
[0] : *ZYNQ_VIP_INFO : M_AXI_GP1 : Port is DISABLED.
XilinxAXIVIP: Found at Path: snn_e2e_tb.dut.u_ps_stub.ps_stub_i.ps7_0.inst.S_AXI_GP0.slave
[0] : *ZYNQ_VIP_INFO : S_AXI_GP0 : Port is DISABLED.
XilinxAXIVIP: Found at Path: snn_e2e_tb.dut.u_ps_stub.ps_stub_i.ps7_0.inst.S_AXI_GP1.slave
[0] : *ZYNQ_VIP_INFO : S_AXI_GP1 : Port is DISABLED.
XilinxAXIVIP: Found at Path: snn_e2e_tb.dut.u_ps_stub.ps_stub_i.ps7_0.inst.S_AXI_HP0.slave
[0] : *ZYNQ_VIP_INFO : S_AXI_HP0 : Port is DISABLED.
                   0 BEFORE checking line ...... x
                   0 AFTER checking line ...... x
XilinxAXIVIP: Found at Path: snn_e2e_tb.dut.u_ps_stub.ps_stub_i.ps7_0.inst.S_AXI_HP1.slave
[0] : *ZYNQ_VIP_INFO : S_AXI_HP1 : Port is DISABLED.
                   0 BEFORE checking line ...... x
                   0 AFTER checking line ...... x
XilinxAXIVIP: Found at Path: snn_e2e_tb.dut.u_ps_stub.ps_stub_i.ps7_0.inst.S_AXI_HP2.slave
[0] : *ZYNQ_VIP_INFO : S_AXI_HP2 : Port is DISABLED.
                   0 BEFORE checking line ...... x
                   0 AFTER checking line ...... x
XilinxAXIVIP: Found at Path: snn_e2e_tb.dut.u_ps_stub.ps_stub_i.ps7_0.inst.S_AXI_HP3.slave
[0] : *ZYNQ_VIP_INFO : S_AXI_HP3 : Port is DISABLED.
                   0 BEFORE checking line ...... x
                   0 AFTER checking line ...... x
XilinxAXIVIP: Found at Path: snn_e2e_tb.dut.u_ps_stub.ps_stub_i.ps7_0.inst.S_AXI_ACP.slave
[0] : *ZYNQ_VIP_INFO : S_AXI_ACP : Port is DISABLED.
=== SNN end-to-end simulation ===
                   0 else checking line ......x
[195 ns] Reset released.

=== SNN end-to-end demo ===
Image word index in DTCM: 0x0000004C
True label: 3
[8205 ns] cy800 CSR access: ctrl=2 we=0 addr=0xc00 csr_i=0x00000320 csr_o=0x00000320
[8215 ns] cy801 CSR access: ctrl=1 we=1 addr=0xbc0 csr_i=0x0000004c csr_o=0x00000000
[8235 ns] cy803 CSR access: ctrl=1 we=1 addr=0xbc2 csr_i=0x00000001 csr_o=0x00000000
[8245 ns] cycle 804: snn_busy 0 -> 1 (kick=1 done=0)
[8245 ns] SNN kicked at cycle 804
[8255 ns] cy805 poll BC2 csr_o=0x00000001
[8425 ns] cy822 snn_state 0->1 chunk=4 fifo_empty=0 sticky=0
[8435 ns] cy823 snn_state 1->2 chunk=4 fifo_empty=0 sticky=0
[8445 ns] cy824 snn_state 2->3 chunk=4 fifo_empty=0 sticky=0
[8535 ns] cy833 snn_state 3->1 chunk=5 fifo_empty=0 sticky=0
[8545 ns] cy834 snn_state 1->2 chunk=5 fifo_empty=0 sticky=0
[8555 ns] cy835 snn_state 2->3 chunk=5 fifo_empty=0 sticky=0
[8645 ns] cy844 snn_state 3->1 chunk=5 fifo_empty=0 sticky=0
[8655 ns] cy845 snn_state 1->2 chunk=5 fifo_empty=0 sticky=0
[8665 ns] cy846 snn_state 2->3 chunk=6 fifo_empty=0 sticky=0
[8755 ns] cy855 snn_state 3->1 chunk=6 fifo_empty=0 sticky=0
[8765 ns] cy856 snn_state 1->2 chunk=6 fifo_empty=0 sticky=0
[8775 ns] cy857 snn_state 2->3 chunk=6 fifo_empty=0 sticky=0
[8865 ns] cy866 snn_state 3->1 chunk=7 fifo_empty=0 sticky=0
[8875 ns] cy867 snn_state 1->2 chunk=7 fifo_empty=0 sticky=0
[8885 ns] cy868 snn_state 2->3 chunk=7 fifo_empty=0 sticky=0
[8975 ns] cy877 snn_state 3->1 chunk=8 fifo_empty=0 sticky=0
[8985 ns] cy878 snn_state 1->2 chunk=8 fifo_empty=0 sticky=0
[8995 ns] cy879 snn_state 2->3 chunk=8 fifo_empty=0 sticky=0
[9085 ns] cy888 snn_state 3->1 chunk=9 fifo_empty=0 sticky=0
[9095 ns] cy889 snn_state 1->2 chunk=9 fifo_empty=0 sticky=0
[9105 ns] cy890 snn_state 2->3 chunk=9 fifo_empty=0 sticky=0
[9195 ns] cy899 snn_state 3->1 chunk=10 fifo_empty=0 sticky=0
[9205 ns] cy900 snn_state 1->2 chunk=10 fifo_empty=0 sticky=0
[9215 ns] cy901 snn_state 2->3 chunk=10 fifo_empty=0 sticky=0
[9305 ns] cy910 snn_state 3->1 chunk=11 fifo_empty=0 sticky=0
[9315 ns] cy911 snn_state 1->2 chunk=11 fifo_empty=0 sticky=0
[9325 ns] cy912 snn_state 2->3 chunk=11 fifo_empty=0 sticky=0
[9415 ns] cy921 snn_state 3->1 chunk=11 fifo_empty=0 sticky=0
[9425 ns] cy922 snn_state 1->2 chunk=11 fifo_empty=0 sticky=0
[9435 ns] cy923 snn_state 2->3 chunk=11 fifo_empty=0 sticky=0
[9525 ns] cy932 snn_state 3->1 chunk=11 fifo_empty=0 sticky=0
[9535 ns] cy933 snn_state 1->2 chunk=11 fifo_empty=0 sticky=0
[9545 ns] cy934 snn_state 2->3 chunk=11 fifo_empty=0 sticky=0
[9635 ns] cy943 snn_state 3->1 chunk=11 fifo_empty=0 sticky=0
[9645 ns] cy944 snn_state 1->2 chunk=11 fifo_empty=0 sticky=0
[9655 ns] cy945 snn_state 2->3 chunk=11 fifo_empty=0 sticky=0
[9745 ns] cy954 snn_state 3->1 chunk=11 fifo_empty=0 sticky=0
[9755 ns] cy955 snn_state 1->2 chunk=11 fifo_empty=0 sticky=0
[9765 ns] cy956 snn_state 2->3 chunk=11 fifo_empty=0 sticky=0
[9855 ns] cy965 snn_state 3->1 chunk=11 fifo_empty=0 sticky=0
[9865 ns] cy966 snn_state 1->2 chunk=11 fifo_empty=0 sticky=0
[9875 ns] cy967 snn_state 2->3 chunk=11 fifo_empty=0 sticky=0
[9965 ns] cy976 snn_state 3->1 chunk=11 fifo_empty=0 sticky=0
[9975 ns] cy977 snn_state 1->2 chunk=11 fifo_empty=0 sticky=0
[9985 ns] cy978 snn_state 2->3 chunk=11 fifo_empty=0 sticky=0
[10075 ns] cy987 snn_state 3->1 chunk=11 fifo_empty=0 sticky=0
[10085 ns] cy988 snn_state 1->2 chunk=12 fifo_empty=0 sticky=0
[10095 ns] cy989 snn_state 2->3 chunk=12 fifo_empty=0 sticky=0
[10185 ns] cy998 snn_state 3->1 chunk=12 fifo_empty=0 sticky=0
[10195 ns] cy999 snn_state 1->2 chunk=12 fifo_empty=0 sticky=0
[10205 ns] cy1000 snn_state 2->3 chunk=12 fifo_empty=0 sticky=0
[10295 ns] cy1009 snn_state 3->1 chunk=12 fifo_empty=0 sticky=0
[10305 ns] cy1010 snn_state 1->2 chunk=12 fifo_empty=0 sticky=0
[10315 ns] cy1011 snn_state 2->3 chunk=12 fifo_empty=0 sticky=0
[10405 ns] cy1020 snn_state 3->1 chunk=12 fifo_empty=0 sticky=0
[10415 ns] cy1021 snn_state 1->2 chunk=12 fifo_empty=0 sticky=0
[10425 ns] cy1022 snn_state 2->3 chunk=12 fifo_empty=0 sticky=0
[10515 ns] cy1031 snn_state 3->1 chunk=12 fifo_empty=0 sticky=0
[10525 ns] cy1032 snn_state 1->2 chunk=12 fifo_empty=0 sticky=0
[10535 ns] cy1033 snn_state 2->3 chunk=12 fifo_empty=0 sticky=0
[10625 ns] cy1042 snn_state 3->1 chunk=12 fifo_empty=0 sticky=0
[10635 ns] cy1043 snn_state 1->2 chunk=12 fifo_empty=0 sticky=0
[10645 ns] cy1044 snn_state 2->3 chunk=12 fifo_empty=0 sticky=0
[10735 ns] cy1053 snn_state 3->1 chunk=12 fifo_empty=0 sticky=0
[10745 ns] cy1054 snn_state 1->2 chunk=12 fifo_empty=0 sticky=0
[10755 ns] cy1055 snn_state 2->3 chunk=12 fifo_empty=0 sticky=0
[10845 ns] cy1064 snn_state 3->1 chunk=12 fifo_empty=0 sticky=0
[10855 ns] cy1065 snn_state 1->2 chunk=12 fifo_empty=0 sticky=0
[10865 ns] cy1066 snn_state 2->3 chunk=12 fifo_empty=0 sticky=0
[10955 ns] cy1075 snn_state 3->1 chunk=12 fifo_empty=0 sticky=0
[10965 ns] cy1076 snn_state 1->2 chunk=12 fifo_empty=0 sticky=0
[10975 ns] cy1077 snn_state 2->3 chunk=12 fifo_empty=0 sticky=0
[11065 ns] cy1086 snn_state 3->1 chunk=12 fifo_empty=0 sticky=0
[11075 ns] cy1087 snn_state 1->2 chunk=12 fifo_empty=0 sticky=0
[11085 ns] cy1088 snn_state 2->3 chunk=12 fifo_empty=0 sticky=0
[11175 ns] cy1097 snn_state 3->1 chunk=12 fifo_empty=0 sticky=0
[11185 ns] cy1098 snn_state 1->2 chunk=12 fifo_empty=0 sticky=0
[11195 ns] cy1099 snn_state 2->3 chunk=12 fifo_empty=0 sticky=0
[11285 ns] cy1108 snn_state 3->1 chunk=12 fifo_empty=0 sticky=0
[11295 ns] cy1109 snn_state 1->2 chunk=12 fifo_empty=0 sticky=0
[11305 ns] cy1110 snn_state 2->3 chunk=12 fifo_empty=0 sticky=0
[11395 ns] cy1119 snn_state 3->1 chunk=12 fifo_empty=0 sticky=0
[11405 ns] cy1120 snn_state 1->2 chunk=13 fifo_empty=0 sticky=0
[11415 ns] cy1121 snn_state 2->3 chunk=13 fifo_empty=0 sticky=0
[11505 ns] cy1130 snn_state 3->1 chunk=13 fifo_empty=0 sticky=0
[11515 ns] cy1131 snn_state 1->2 chunk=13 fifo_empty=0 sticky=0
[11525 ns] cy1132 snn_state 2->3 chunk=13 fifo_empty=0 sticky=0
[11615 ns] cy1141 snn_state 3->1 chunk=13 fifo_empty=0 sticky=0
[11625 ns] cy1142 snn_state 1->2 chunk=13 fifo_empty=0 sticky=0
[11635 ns] cy1143 snn_state 2->3 chunk=13 fifo_empty=0 sticky=0
[11725 ns] cy1152 snn_state 3->1 chunk=13 fifo_empty=0 sticky=0
[11735 ns] cy1153 snn_state 1->2 chunk=13 fifo_empty=0 sticky=0
[11745 ns] cy1154 snn_state 2->3 chunk=13 fifo_empty=0 sticky=0
[11835 ns] cy1163 snn_state 3->1 chunk=13 fifo_empty=0 sticky=0
[11845 ns] cy1164 snn_state 1->2 chunk=13 fifo_empty=0 sticky=0
[11855 ns] cy1165 snn_state 2->3 chunk=13 fifo_empty=0 sticky=0
[11945 ns] cy1174 snn_state 3->1 chunk=13 fifo_empty=0 sticky=0
[11955 ns] cy1175 snn_state 1->2 chunk=13 fifo_empty=0 sticky=0
[11965 ns] cy1176 snn_state 2->3 chunk=13 fifo_empty=0 sticky=0
[12055 ns] cy1185 snn_state 3->1 chunk=13 fifo_empty=0 sticky=0
[12065 ns] cy1186 snn_state 1->2 chunk=13 fifo_empty=0 sticky=0
[12075 ns] cy1187 snn_state 2->3 chunk=13 fifo_empty=0 sticky=0
[12165 ns] cy1196 snn_state 3->1 chunk=13 fifo_empty=0 sticky=0
[12175 ns] cy1197 snn_state 1->2 chunk=13 fifo_empty=0 sticky=0
[12185 ns] cy1198 snn_state 2->3 chunk=13 fifo_empty=0 sticky=0
[12275 ns] cy1207 snn_state 3->1 chunk=13 fifo_empty=0 sticky=0
[12285 ns] cy1208 snn_state 1->2 chunk=13 fifo_empty=0 sticky=0
[12295 ns] cy1209 snn_state 2->3 chunk=13 fifo_empty=0 sticky=0
[12385 ns] cy1218 snn_state 3->1 chunk=13 fifo_empty=0 sticky=0
[12395 ns] cy1219 snn_state 1->2 chunk=14 fifo_empty=0 sticky=0
[12405 ns] cy1220 snn_state 2->3 chunk=14 fifo_empty=0 sticky=0
[12495 ns] cy1229 snn_state 3->1 chunk=14 fifo_empty=0 sticky=0
[12505 ns] cy1230 snn_state 1->2 chunk=14 fifo_empty=0 sticky=0
[12515 ns] cy1231 snn_state 2->3 chunk=14 fifo_empty=0 sticky=0
[12605 ns] cy1240 snn_state 3->1 chunk=14 fifo_empty=0 sticky=0
[12615 ns] cy1241 snn_state 1->2 chunk=14 fifo_empty=0 sticky=0
[12625 ns] cy1242 snn_state 2->3 chunk=14 fifo_empty=0 sticky=0
[12715 ns] cy1251 snn_state 3->1 chunk=14 fifo_empty=0 sticky=0
[12725 ns] cy1252 snn_state 1->2 chunk=14 fifo_empty=0 sticky=0
[12735 ns] cy1253 snn_state 2->3 chunk=14 fifo_empty=0 sticky=0
[12825 ns] cy1262 snn_state 3->1 chunk=14 fifo_empty=0 sticky=0
[12835 ns] cy1263 snn_state 1->2 chunk=14 fifo_empty=0 sticky=0
[12845 ns] cy1264 snn_state 2->3 chunk=14 fifo_empty=0 sticky=0
[12935 ns] cy1273 snn_state 3->1 chunk=14 fifo_empty=0 sticky=0
[12945 ns] cy1274 snn_state 1->2 chunk=14 fifo_empty=0 sticky=0
[12955 ns] cy1275 snn_state 2->3 chunk=14 fifo_empty=0 sticky=0
[13045 ns] cy1284 snn_state 3->1 chunk=14 fifo_empty=0 sticky=0
[13055 ns] cy1285 snn_state 1->2 chunk=14 fifo_empty=0 sticky=0
[13065 ns] cy1286 snn_state 2->3 chunk=14 fifo_empty=0 sticky=0
[13155 ns] cy1295 snn_state 3->1 chunk=14 fifo_empty=0 sticky=0
[13165 ns] cy1296 snn_state 1->2 chunk=15 fifo_empty=0 sticky=0
[13175 ns] cy1297 snn_state 2->3 chunk=15 fifo_empty=0 sticky=0
[13265 ns] cy1306 snn_state 3->1 chunk=15 fifo_empty=0 sticky=0
[13275 ns] cy1307 snn_state 1->2 chunk=15 fifo_empty=0 sticky=0
[13285 ns] cy1308 snn_state 2->3 chunk=15 fifo_empty=0 sticky=0
[13375 ns] cy1317 snn_state 3->1 chunk=15 fifo_empty=0 sticky=0
[13385 ns] cy1318 snn_state 1->2 chunk=15 fifo_empty=0 sticky=0
[13395 ns] cy1319 snn_state 2->3 chunk=15 fifo_empty=0 sticky=0
[13485 ns] cy1328 snn_state 3->1 chunk=15 fifo_empty=0 sticky=0
[13495 ns] cy1329 snn_state 1->2 chunk=15 fifo_empty=0 sticky=0
[13505 ns] cy1330 snn_state 2->3 chunk=15 fifo_empty=0 sticky=0
[13595 ns] cy1339 snn_state 3->1 chunk=15 fifo_empty=0 sticky=0
[13605 ns] cy1340 snn_state 1->2 chunk=15 fifo_empty=0 sticky=0
[13615 ns] cy1341 snn_state 2->3 chunk=15 fifo_empty=0 sticky=0
[13705 ns] cy1350 snn_state 3->1 chunk=15 fifo_empty=0 sticky=0
[13715 ns] cy1351 snn_state 1->2 chunk=16 fifo_empty=0 sticky=0
[13725 ns] cy1352 snn_state 2->3 chunk=16 fifo_empty=0 sticky=0
[13815 ns] cy1361 snn_state 3->1 chunk=16 fifo_empty=0 sticky=0
[13825 ns] cy1362 snn_state 1->2 chunk=16 fifo_empty=0 sticky=0
[13835 ns] cy1363 snn_state 2->3 chunk=16 fifo_empty=0 sticky=0
[13925 ns] cy1372 snn_state 3->1 chunk=16 fifo_empty=0 sticky=0
[13935 ns] cy1373 snn_state 1->2 chunk=16 fifo_empty=0 sticky=0
[13945 ns] cy1374 snn_state 2->3 chunk=16 fifo_empty=0 sticky=0
[14035 ns] cy1383 snn_state 3->1 chunk=16 fifo_empty=0 sticky=0
[14045 ns] cy1384 snn_state 1->2 chunk=16 fifo_empty=0 sticky=0
[14055 ns] cy1385 snn_state 2->3 chunk=16 fifo_empty=0 sticky=0
[14145 ns] cy1394 snn_state 3->1 chunk=16 fifo_empty=0 sticky=0
[14155 ns] cy1395 snn_state 1->2 chunk=16 fifo_empty=0 sticky=0
[14165 ns] cy1396 snn_state 2->3 chunk=16 fifo_empty=0 sticky=0
[14255 ns] cy1405 snn_state 3->1 chunk=16 fifo_empty=0 sticky=0
[14265 ns] cy1406 snn_state 1->2 chunk=17 fifo_empty=0 sticky=0
[14275 ns] cy1407 snn_state 2->3 chunk=17 fifo_empty=0 sticky=0
[14365 ns] cy1416 snn_state 3->1 chunk=17 fifo_empty=0 sticky=0
[14375 ns] cy1417 snn_state 1->2 chunk=17 fifo_empty=0 sticky=0
[14385 ns] cy1418 snn_state 2->3 chunk=17 fifo_empty=0 sticky=0
[14475 ns] cy1427 snn_state 3->1 chunk=17 fifo_empty=0 sticky=0
[14485 ns] cy1428 snn_state 1->2 chunk=17 fifo_empty=0 sticky=0
[14495 ns] cy1429 snn_state 2->3 chunk=17 fifo_empty=0 sticky=0
[14585 ns] cy1438 snn_state 3->1 chunk=17 fifo_empty=0 sticky=0
[14595 ns] cy1439 snn_state 1->2 chunk=17 fifo_empty=0 sticky=0
[14605 ns] cy1440 snn_state 2->3 chunk=17 fifo_empty=0 sticky=0
[14695 ns] cy1449 snn_state 3->1 chunk=17 fifo_empty=0 sticky=0
[14705 ns] cy1450 snn_state 1->2 chunk=17 fifo_empty=0 sticky=0
[14715 ns] cy1451 snn_state 2->3 chunk=17 fifo_empty=0 sticky=0
[14805 ns] cy1460 snn_state 3->1 chunk=17 fifo_empty=0 sticky=0
[14815 ns] cy1461 snn_state 1->2 chunk=17 fifo_empty=0 sticky=0
[14825 ns] cy1462 snn_state 2->3 chunk=17 fifo_empty=0 sticky=0
[14915 ns] cy1471 snn_state 3->1 chunk=17 fifo_empty=0 sticky=0
[14925 ns] cy1472 snn_state 1->2 chunk=17 fifo_empty=0 sticky=0
[14935 ns] cy1473 snn_state 2->3 chunk=17 fifo_empty=0 sticky=0
[15025 ns] cy1482 snn_state 3->1 chunk=17 fifo_empty=0 sticky=0
[15035 ns] cy1483 snn_state 1->2 chunk=17 fifo_empty=0 sticky=0
[15045 ns] cy1484 snn_state 2->3 chunk=17 fifo_empty=0 sticky=0
[15135 ns] cy1493 snn_state 3->1 chunk=17 fifo_empty=0 sticky=0
[15145 ns] cy1494 snn_state 1->2 chunk=17 fifo_empty=0 sticky=0
[15155 ns] cy1495 snn_state 2->3 chunk=17 fifo_empty=0 sticky=0
[15245 ns] cy1504 snn_state 3->1 chunk=17 fifo_empty=0 sticky=0
[15255 ns] cy1505 snn_state 1->2 chunk=17 fifo_empty=0 sticky=0
[15265 ns] cy1506 snn_state 2->3 chunk=17 fifo_empty=0 sticky=0
[15355 ns] cy1515 snn_state 3->1 chunk=17 fifo_empty=0 sticky=0
[15365 ns] cy1516 snn_state 1->2 chunk=17 fifo_empty=0 sticky=0
[15375 ns] cy1517 snn_state 2->3 chunk=17 fifo_empty=0 sticky=0
[15465 ns] cy1526 snn_state 3->1 chunk=17 fifo_empty=0 sticky=0
[15475 ns] cy1527 snn_state 1->2 chunk=18 fifo_empty=0 sticky=0
[15485 ns] cy1528 snn_state 2->3 chunk=18 fifo_empty=0 sticky=0
[15575 ns] cy1537 snn_state 3->1 chunk=18 fifo_empty=0 sticky=0
[15585 ns] cy1538 snn_state 1->2 chunk=18 fifo_empty=0 sticky=0
[15595 ns] cy1539 snn_state 2->3 chunk=18 fifo_empty=0 sticky=0
[15685 ns] cy1548 snn_state 3->1 chunk=18 fifo_empty=0 sticky=0
[15695 ns] cy1549 snn_state 1->2 chunk=18 fifo_empty=0 sticky=0
[15705 ns] cy1550 snn_state 2->3 chunk=18 fifo_empty=0 sticky=0
[15795 ns] cy1559 snn_state 3->1 chunk=18 fifo_empty=0 sticky=0
[15805 ns] cy1560 snn_state 1->2 chunk=18 fifo_empty=0 sticky=0
[15815 ns] cy1561 snn_state 2->3 chunk=18 fifo_empty=0 sticky=0
[15905 ns] cy1570 snn_state 3->1 chunk=18 fifo_empty=0 sticky=0
[15915 ns] cy1571 snn_state 1->2 chunk=18 fifo_empty=0 sticky=0
[15925 ns] cy1572 snn_state 2->3 chunk=18 fifo_empty=0 sticky=0
[16015 ns] cy1581 snn_state 3->1 chunk=18 fifo_empty=0 sticky=0
[16025 ns] cy1582 snn_state 1->2 chunk=18 fifo_empty=0 sticky=0
[16035 ns] cy1583 snn_state 2->3 chunk=18 fifo_empty=0 sticky=0
[16125 ns] cy1592 snn_state 3->1 chunk=18 fifo_empty=0 sticky=0
[16135 ns] cy1593 snn_state 1->2 chunk=18 fifo_empty=0 sticky=0
[16145 ns] cy1594 snn_state 2->3 chunk=18 fifo_empty=0 sticky=0
[16235 ns] cy1603 snn_state 3->1 chunk=18 fifo_empty=0 sticky=0
[16245 ns] cy1604 snn_state 1->2 chunk=18 fifo_empty=0 sticky=0
[16255 ns] cy1605 snn_state 2->3 chunk=18 fifo_empty=0 sticky=0
[16345 ns] cy1614 snn_state 3->1 chunk=18 fifo_empty=0 sticky=0
[16355 ns] cy1615 snn_state 1->2 chunk=18 fifo_empty=0 sticky=0
[16365 ns] cy1616 snn_state 2->3 chunk=18 fifo_empty=0 sticky=0
[16455 ns] cy1625 snn_state 3->1 chunk=18 fifo_empty=0 sticky=0
[16465 ns] cy1626 snn_state 1->2 chunk=18 fifo_empty=0 sticky=0
[16475 ns] cy1627 snn_state 2->3 chunk=18 fifo_empty=0 sticky=0
[16565 ns] cy1636 snn_state 3->1 chunk=18 fifo_empty=0 sticky=0
[16575 ns] cy1637 snn_state 1->2 chunk=18 fifo_empty=0 sticky=0
[16585 ns] cy1638 snn_state 2->3 chunk=18 fifo_empty=0 sticky=0
[16675 ns] cy1647 snn_state 3->1 chunk=18 fifo_empty=0 sticky=0
[16685 ns] cy1648 snn_state 1->2 chunk=18 fifo_empty=0 sticky=0
[16695 ns] cy1649 snn_state 2->3 chunk=18 fifo_empty=0 sticky=0
[16785 ns] cy1658 snn_state 3->1 chunk=18 fifo_empty=0 sticky=0
[16795 ns] cy1659 snn_state 1->2 chunk=18 fifo_empty=0 sticky=0
[16805 ns] cy1660 snn_state 2->3 chunk=18 fifo_empty=0 sticky=0
[16895 ns] cy1669 snn_state 3->1 chunk=18 fifo_empty=0 sticky=0
[16905 ns] cy1670 snn_state 1->2 chunk=19 fifo_empty=0 sticky=0
[16915 ns] cy1671 snn_state 2->3 chunk=19 fifo_empty=0 sticky=0
[17005 ns] cy1680 snn_state 3->1 chunk=19 fifo_empty=0 sticky=0
[17015 ns] cy1681 snn_state 1->2 chunk=19 fifo_empty=0 sticky=0
[17025 ns] cy1682 snn_state 2->3 chunk=19 fifo_empty=0 sticky=0
[17115 ns] cy1691 snn_state 3->1 chunk=19 fifo_empty=0 sticky=0
[17125 ns] cy1692 snn_state 1->2 chunk=19 fifo_empty=0 sticky=0
[17135 ns] cy1693 snn_state 2->3 chunk=19 fifo_empty=0 sticky=0
[17225 ns] cy1702 snn_state 3->1 chunk=19 fifo_empty=0 sticky=0
[17235 ns] cy1703 snn_state 1->2 chunk=19 fifo_empty=0 sticky=0
[17245 ns] cy1704 snn_state 2->3 chunk=19 fifo_empty=0 sticky=0
[17335 ns] cy1713 snn_state 3->1 chunk=19 fifo_empty=0 sticky=0
[17345 ns] cy1714 snn_state 1->2 chunk=19 fifo_empty=0 sticky=0
[17355 ns] cy1715 snn_state 2->3 chunk=19 fifo_empty=0 sticky=0
[17445 ns] cy1724 snn_state 3->1 chunk=19 fifo_empty=0 sticky=0
[17455 ns] cy1725 snn_state 1->2 chunk=19 fifo_empty=0 sticky=0
[17465 ns] cy1726 snn_state 2->3 chunk=19 fifo_empty=0 sticky=0
[17555 ns] cy1735 snn_state 3->1 chunk=19 fifo_empty=0 sticky=0
[17565 ns] cy1736 snn_state 1->2 chunk=19 fifo_empty=0 sticky=0
[17575 ns] cy1737 snn_state 2->3 chunk=19 fifo_empty=0 sticky=0
[17665 ns] cy1746 snn_state 3->1 chunk=19 fifo_empty=0 sticky=0
[17675 ns] cy1747 snn_state 1->2 chunk=19 fifo_empty=0 sticky=0
[17685 ns] cy1748 snn_state 2->3 chunk=19 fifo_empty=0 sticky=0
[17775 ns] cy1757 snn_state 3->1 chunk=19 fifo_empty=0 sticky=0
[17785 ns] cy1758 snn_state 1->2 chunk=19 fifo_empty=0 sticky=0
[17795 ns] cy1759 snn_state 2->3 chunk=19 fifo_empty=0 sticky=0
[17885 ns] cy1768 snn_state 3->1 chunk=19 fifo_empty=0 sticky=0
[17895 ns] cy1769 snn_state 1->2 chunk=19 fifo_empty=0 sticky=0
[17905 ns] cy1770 snn_state 2->3 chunk=19 fifo_empty=0 sticky=0
[17995 ns] cy1779 snn_state 3->1 chunk=19 fifo_empty=0 sticky=0
[18005 ns] cy1780 snn_state 1->2 chunk=19 fifo_empty=0 sticky=0
[18015 ns] cy1781 snn_state 2->3 chunk=19 fifo_empty=0 sticky=0
[18105 ns] cy1790 snn_state 3->1 chunk=19 fifo_empty=0 sticky=0
[18115 ns] cy1791 snn_state 1->2 chunk=19 fifo_empty=0 sticky=0
[18125 ns] cy1792 snn_state 2->3 chunk=19 fifo_empty=0 sticky=0
[18215 ns] cy1801 snn_state 3->1 chunk=19 fifo_empty=0 sticky=0
[18225 ns] cy1802 snn_state 1->2 chunk=20 fifo_empty=0 sticky=0
[18235 ns] cy1803 snn_state 2->3 chunk=20 fifo_empty=0 sticky=0
[18325 ns] cy1812 snn_state 3->1 chunk=20 fifo_empty=0 sticky=0
[18335 ns] cy1813 snn_state 1->2 chunk=20 fifo_empty=0 sticky=0
[18345 ns] cy1814 snn_state 2->3 chunk=20 fifo_empty=0 sticky=0
[18435 ns] cy1823 snn_state 3->1 chunk=20 fifo_empty=0 sticky=0
[18445 ns] cy1824 snn_state 1->2 chunk=20 fifo_empty=0 sticky=0
[18455 ns] cy1825 snn_state 2->3 chunk=20 fifo_empty=0 sticky=0
[18545 ns] cy1834 snn_state 3->1 chunk=20 fifo_empty=0 sticky=0
[18555 ns] cy1835 snn_state 1->2 chunk=20 fifo_empty=0 sticky=0
[18565 ns] cy1836 snn_state 2->3 chunk=20 fifo_empty=0 sticky=0
[18655 ns] cy1845 snn_state 3->1 chunk=20 fifo_empty=0 sticky=0
[18665 ns] cy1846 snn_state 1->2 chunk=20 fifo_empty=0 sticky=0
[18675 ns] cy1847 snn_state 2->3 chunk=20 fifo_empty=0 sticky=0
[18765 ns] cy1856 snn_state 3->1 chunk=20 fifo_empty=0 sticky=0
[18775 ns] cy1857 snn_state 1->2 chunk=20 fifo_empty=0 sticky=0
[18785 ns] cy1858 snn_state 2->3 chunk=20 fifo_empty=0 sticky=0
[18875 ns] cy1867 snn_state 3->1 chunk=20 fifo_empty=0 sticky=0
[18885 ns] cy1868 snn_state 1->2 chunk=20 fifo_empty=0 sticky=0
[18895 ns] cy1869 snn_state 2->3 chunk=20 fifo_empty=0 sticky=0
[18985 ns] cy1878 snn_state 3->1 chunk=20 fifo_empty=0 sticky=0
[18995 ns] cy1879 snn_state 1->2 chunk=20 fifo_empty=0 sticky=0
[19005 ns] cy1880 snn_state 2->3 chunk=20 fifo_empty=0 sticky=0
[19095 ns] cy1889 snn_state 3->1 chunk=20 fifo_empty=0 sticky=0
[19105 ns] cy1890 snn_state 1->2 chunk=21 fifo_empty=0 sticky=0
[19115 ns] cy1891 snn_state 2->3 chunk=21 fifo_empty=0 sticky=0
[19205 ns] cy1900 snn_state 3->1 chunk=21 fifo_empty=0 sticky=0
[19215 ns] cy1901 snn_state 1->2 chunk=21 fifo_empty=0 sticky=0
[19225 ns] cy1902 snn_state 2->3 chunk=21 fifo_empty=0 sticky=0
[19315 ns] cy1911 snn_state 3->1 chunk=21 fifo_empty=0 sticky=0
[19325 ns] cy1912 snn_state 1->2 chunk=21 fifo_empty=0 sticky=0
[19335 ns] cy1913 snn_state 2->3 chunk=21 fifo_empty=0 sticky=0
[19425 ns] cy1922 snn_state 3->1 chunk=21 fifo_empty=0 sticky=0
[19435 ns] cy1923 snn_state 1->2 chunk=22 fifo_empty=0 sticky=0
[19445 ns] cy1924 snn_state 2->3 chunk=22 fifo_empty=0 sticky=0
[19535 ns] cy1933 snn_state 3->1 chunk=22 fifo_empty=0 sticky=0
[19545 ns] cy1934 snn_state 1->2 chunk=23 fifo_empty=0 sticky=0
[19555 ns] cy1935 snn_state 2->3 chunk=23 fifo_empty=0 sticky=0
